[gd_scene load_steps=6 format=2]

[ext_resource path="res://CellA.gd" type="Script" id=1]

[sub_resource type="PhysicsMaterial" id=4]
friction = 0.0
bounce = 1.0

[sub_resource type="CapsuleMesh" id=1]

[sub_resource type="SpatialMaterial" id=3]
albedo_color = Color( 1, 0, 0, 1 )

[sub_resource type="CapsuleShape" id=5]
margin = 0.001

[node name="CellA" type="RigidBody"]
physics_material_override = SubResource( 4 )
continuous_cd = true
contacts_reported = 100
contact_monitor = true
script = ExtResource( 1 )
speed = 13.186

[node name="MeshInstance" type="MeshInstance" parent="."]
mesh = SubResource( 1 )
material/0 = SubResource( 3 )

[node name="CollisionShape" type="CollisionShape" parent="."]
shape = SubResource( 5 )

[connection signal="body_entered" from="." to="." method="_on_CellA_body_entered"]
