[gd_scene load_steps=6 format=2]

[ext_resource path="res://scripts/Loup.gd" type="Script" id=1]

[sub_resource type="PhysicsMaterial" id=7]

[sub_resource type="CapsuleMesh" id=4]

[sub_resource type="SpatialMaterial" id=5]
albedo_color = Color( 0.27451, 0.207843, 0.207843, 1 )

[sub_resource type="CapsuleShape" id=6]

[node name="Loup" type="RigidBody" groups=["predateur"]]
physics_material_override = SubResource( 7 )
continuous_cd = true
contacts_reported = 100
contact_monitor = true
script = ExtResource( 1 )
speed = 50.0
ageMax = 5000

[node name="MeshInstance" type="MeshInstance" parent="."]
mesh = SubResource( 4 )
material/0 = SubResource( 5 )

[node name="CollisionShape" type="CollisionShape" parent="."]
shape = SubResource( 6 )
